<?xml version="1.0" encoding="UTF-8"?>
<!DOCTYPE suite SYSTEM "http://testng.org/testng-1.0.dtd">
<suite verbose="0" name="Failed suite [Command line suite]">
  <test name="Command line test" preserve-order="false">
    <classes>
      <class name="de.comvel.tests.Test1"/>
      <class name="de.comvel.tests.Test2"/>
    </classes>
  </test> <!-- Command line test -->
</suite> <!-- Failed suite [Command line suite] -->
